import * from "resources/ogre/scripts/materials/base.material"

import * from "resources/ogre/scripts/programs/DepthShadowmap.material"
material /global/creatures/cow/spotted_a/shadowcaster : Ogre/DepthShadowmap/Caster/Float
{
    set_texture_alias DiffuseMap 3d_objects/creatures/cow/textures/spotted_a/D.png
}
material /global/creatures/cow/spotted_a : /base/simple/nonculled/alpharejected
{
    set_texture_alias DiffuseMap 3d_objects/creatures/cow/textures/spotted_a/D.png
    set $shadow_caster_material /global/creatures/cow/spotted_a/shadowcaster
}
