import * from "resources/ogre/scripts/materials/base.material"

material /global/structures/ossyja_planks : /base/normalmap/specular
{
    set_texture_alias DiffuseMap 3d_objects/structures/textures/ossyja_planks/D.png
    set_texture_alias NormalHeightMap 3d_objects/structures/textures/ossyja_planks/N.png
    set_texture_alias SpecularMap 3d_objects/structures/textures/ossyja_planks/S.png
}
