import * from "resources/ogre/scripts/materials/base.material"

material /global/items/furniture/painting/pirate : /base/simple
{
    set_texture_alias DiffuseMap 3d_objects/items/furniture/textures/painting/pirate/D.png
}
