import * from "resources/ogre/scripts/materials/base.material"

material /global/creatures/quadruped_v2/pink_pig : /base/simple
{
    set_texture_alias DiffuseMap 3d_skeletons/creatures/quadruped_v2/textures/pink_pig/D.png
}
