import * from "resources/ogre/scripts/materials/base.material"

material /global/characters/malebuilder/male/head_foxy_lady : /base/simple
{
    set_texture_alias DiffuseMap 3d_objects/characters/malebuilder/male/textures/head_foxy_lady/D.png
}
