import * from "resources/ogre/scripts/materials/base.material"

material /global/bipeds/races/human/malebuilder/body/male_pink : /base/simple
{
    set_texture_alias DiffuseMap 3d_skeletons/bipeds/races/human/malebuilder/body/textures/male_pink/D.png
}
