import * from "resources/ogre/scripts/materials/base.material"

material /global/structures/ossyja_door : /base/normalmap/specular
{
    set_texture_alias DiffuseMap 3d_objects/structures/textures/ossyja_door/D.png
    set_texture_alias NormalHeightMap 3d_objects/structures/textures/ossyja_door/N.png
    set_texture_alias SpecularMap 3d_objects/structures/textures/ossyja_door/S.png
}
