import * from "resources/ogre/scripts/materials/base.material"

material /global/environment/stone_felsite_face : /base/normalmap/specular
{
    set_texture_alias DiffuseMap 3d_objects/environment/textures/stone_felsite_face/D.png
    set_texture_alias NormalHeightMap 3d_objects/environment/textures/stone_felsite_face/N.png
    set_texture_alias SpecularMap 3d_objects/environment/textures/stone_felsite_face/S.png
}
