import * from "resources/ogre/scripts/materials/base.material"

import * from "resources/ogre/scripts/programs/DepthShadowmap.material"
material /global/items/tools/tool_handle_old/shadowcaster : Ogre/DepthShadowmap/Caster/Float
{
    set_texture_alias DiffuseMap 3d_objects/items/tools/textures/tool_handle_old/D.png
}
material /global/items/tools/tool_handle_old : /base/normalmap/specular/nonculled/alpharejected
{
    set_texture_alias DiffuseMap 3d_objects/items/tools/textures/tool_handle_old/D.png
    set_texture_alias NormalHeightMap 3d_objects/items/tools/textures/tool_handle_old/N.png
    set_texture_alias SpecularMap 3d_objects/items/tools/textures/tool_handle_old/S.png
    set $shadow_caster_material /global/items/tools/tool_handle_old/shadowcaster
}
