import * from "resources/ogre/scripts/materials/base.material"

material /global/items/containers/crate_new : /base/simple
{
    set_texture_alias DiffuseMap 3d_objects/items/containers/textures/crate_new/D.png
}
