import * from "resources/ogre/scripts/materials/base.material"

import * from "resources/ogre/scripts/programs/DepthShadowmap.material"
material /global/creatures/tubular/scaly_brown_white/shadowcaster : Ogre/DepthShadowmap/Caster/Float
{
    set_texture_alias DiffuseMap 3d_skeletons/creatures/tubular/textures/scaly_brown_white/D.png
}
material /global/creatures/tubular/scaly_brown_white : /base/simple/nonculled/alpharejected
{
    set_texture_alias DiffuseMap 3d_skeletons/creatures/tubular/textures/scaly_brown_white/D.png
    set $shadow_caster_material /global/creatures/tubular/scaly_brown_white/shadowcaster
}
