import * from "resources/ogre/scripts/materials/base.material"

material /global/structures/rezpa_staced_masonry : /base/normalmap/specular
{
    set_texture_alias DiffuseMap 3d_objects/structures/textures/rezpa_staced_masonry/D.png
    set_texture_alias NormalHeightMap 3d_objects/structures/textures/rezpa_staced_masonry/N.png
    set_texture_alias SpecularMap 3d_objects/structures/textures/rezpa_staced_masonry/S.png
}
