import * from "resources/ogre/scripts/materials/base.material"

material /global/bipeds/races/human/malebuilder/head/foxy_lady : /base/simple
{
    set_texture_alias DiffuseMap 3d_skeletons/bipeds/races/human/malebuilder/head/textures/foxy_lady/D.png
}
