import * from "resources/ogre/scripts/materials/base.material"

material /global/structures/rezpa_stonetrim : /base/normalmap/specular
{
    set_texture_alias DiffuseMap 3d_objects/structures/textures/rezpa_stonetrim/D.png
    set_texture_alias NormalHeightMap 3d_objects/structures/textures/rezpa_stonetrim/N.png
    set_texture_alias SpecularMap 3d_objects/structures/textures/rezpa_stonetrim/S.png
}
