import * from "resources/ogre/scripts/materials/base.material"

import * from "resources/ogre/scripts/programs/DepthShadowmap.material"
material /global/creatures/tubular/blue_fin_tuna/shadowcaster : Ogre/DepthShadowmap/Caster/Float
{
    set_texture_alias DiffuseMap 3d_skeletons/creatures/tubular/textures/blue_fin_tuna/D.png
}
material /global/creatures/tubular/blue_fin_tuna : /base/simple/nonculled/alpharejected
{
    set_texture_alias DiffuseMap 3d_skeletons/creatures/tubular/textures/blue_fin_tuna/D.png
    set $shadow_caster_material /global/creatures/tubular/blue_fin_tuna/shadowcaster
}
