import * from "resources/ogre/scripts/materials/base.material"

material /global/structures/temple_base : /base/normalmap/specular
{
    set_texture_alias DiffuseMap 3d_objects/structures/textures/temple_base/D.png
    set_texture_alias NormalHeightMap 3d_objects/structures/textures/temple_base/N.png
    set_texture_alias SpecularMap 3d_objects/structures/textures/temple_base/S.png
}
