import * from "resources/ogre/scripts/materials/base.material"

material /global/items/resources/ingot_iron : /base/normalmap
{
    set_texture_alias DiffuseMap 3d_objects/items/resources/textures/ingot_iron/D.png
    set_texture_alias NormalHeightMap 3d_objects/items/resources/textures/ingot_iron/N.png
}
