import * from "resources/ogre/scripts/materials/base.material"

material /global/items/containers/bottlejug : /base/normalmap/specular
{
    set_texture_alias DiffuseMap 3d_objects/items/containers/textures/bottlejug/D.png
    set_texture_alias NormalHeightMap 3d_objects/items/containers/textures/bottlejug/N.png
    set_texture_alias SpecularMap 3d_objects/items/containers/textures/bottlejug/S.png
}
