import * from "resources/ogre/scripts/materials/base.material"

import * from "resources/ogre/scripts/programs/DepthShadowmap.material"
material /global/structures/marketstall_details_red/shadowcaster : Ogre/DepthShadowmap/Caster/Float
{
    set_texture_alias DiffuseMap 3d_objects/structures/textures/marketstall_details_red/D.png
}
material /global/structures/marketstall_details_red : /base/normalmap/nonculled/alpharejected
{
    set_texture_alias DiffuseMap 3d_objects/structures/textures/marketstall_details_red/D.png
    set_texture_alias NormalHeightMap 3d_objects/structures/textures/marketstall_details_red/N.png
    set $shadow_caster_material /global/structures/marketstall_details_red/shadowcaster
}
