import * from "resources/ogre/scripts/materials/base.material"

import * from "resources/ogre/scripts/programs/DepthShadowmap.material"
material /global/plants/fruit/apple/leaf/shadowcaster : Ogre/DepthShadowmap/Caster/Float
{
    set_texture_alias DiffuseMap 3d_objects/plants/fruit/textures/apple/D.png
}
material /global/plants/fruit/apple/leaf : /base/normalmap/specular/nonculled/alpharejected
{
    set_texture_alias DiffuseMap 3d_objects/plants/fruit/textures/apple/D.png
    set $shadow_caster_material /global/plants/fruit/apple/leaf/shadowcaster
    set_texture_alias NormalHeightMap 3d_objects/plants/fruit/textures/apple/N.png
    set_texture_alias SpecularMap 3d_objects/plants/fruit/textures/apple/S.png
}
