import * from "resources/ogre/scripts/materials/base.material"

import * from "resources/ogre/scripts/programs/DepthShadowmap.material"
material /global/plants/flowers/camellia/shadowcaster : Ogre/DepthShadowmap/Caster/Float
{
    set_texture_alias DiffuseMap 3d_objects/plants/flowers/textures/camellia/D.png
}
material /global/plants/flowers/camellia : /base/normalmap/specular/nonculled/alpharejected
{
    set_texture_alias DiffuseMap 3d_objects/plants/flowers/textures/camellia/D.png
    set_texture_alias NormalHeightMap 3d_objects/plants/flowers/textures/camellia/N.png
    set_texture_alias SpecularMap 3d_objects/plants/flowers/textures/camellia/S.png
    set $shadow_caster_material /global/plants/flowers/camellia/shadowcaster
}
