import * from "resources/ogre/scripts/materials/base.material"

import * from "resources/ogre/scripts/programs/DepthShadowmap.material"
material /global/plants/trees/tree_pine/shadowcaster : Ogre/DepthShadowmap/Caster/Float
{
    set_texture_alias DiffuseMap 3d_objects/plants/trees/textures/tree_pine/D.png
}
material /global/plants/trees/tree_pine : /base/normalmap/nonculled/alpharejected
{
    set_texture_alias DiffuseMap 3d_objects/plants/trees/textures/tree_pine/D.png
    set_texture_alias NormalHeightMap 3d_objects/plants/trees/textures/tree_pine/N.png
    set $shadow_caster_material /global/plants/trees/tree_pine/shadowcaster
}
