import * from "resources/ogre/scripts/materials/base.material"

material /global/plants/mushrooms/amanita : /base/normalmap/specular
{
    set_texture_alias DiffuseMap 3d_objects/plants/mushrooms/textures/amanita/D.png
    set_texture_alias NormalHeightMap 3d_objects/plants/mushrooms/textures/amanita/N.png
    set_texture_alias SpecularMap 3d_objects/plants/mushrooms/textures/amanita/S.png
}
