import * from "resources/ogre/scripts/materials/base.material"

material /global/creatures/quadruped/zombie : /base/simple
{
    set_texture_alias DiffuseMap 3d_skeletons/creatures/quadruped/textures/zombie/D.png
}
