import * from "resources/ogre/scripts/materials/base.material"

import * from "resources/ogre/scripts/programs/DepthShadowmap.material"
material /global/structures/roof_straw/shadowcaster : Ogre/DepthShadowmap/Caster/Float
{
    set_texture_alias DiffuseMap 3d_objects/structures/textures/roof_straw/D.png
}
material /global/structures/roof_straw : /base/normalmap/nonculled/alpharejected
{
    set_texture_alias DiffuseMap 3d_objects/structures/textures/roof_straw/D.png
    set_texture_alias NormalHeightMap 3d_objects/structures/textures/roof_straw/N.png
    set $shadow_caster_material /global/structures/roof_straw/shadowcaster
}
