import * from "resources/ogre/scripts/materials/base.material"

import * from "resources/ogre/scripts/programs/DepthShadowmap.material"
material /global/items/containers/bottle/shadowcaster : Ogre/DepthShadowmap/Caster/Float
{
    set_texture_alias DiffuseMap 3d_objects/items/containers/textures/bottle/D.png
}
material /global/items/containers/bottle : /base/normalmap/specular/nonculled/alphablended
{
    set_texture_alias DiffuseMap 3d_objects/items/containers/textures/bottle/D.png
    set_texture_alias NormalHeightMap 3d_objects/items/containers/textures/bottle/N.png
    set_texture_alias SpecularMap 3d_objects/items/containers/textures/bottle/S.png
    set $shadow_caster_material /global/items/containers/bottle/shadowcaster
}
