import * from "resources/ogre/scripts/materials/base.material"

import * from "resources/ogre/scripts/programs/DepthShadowmap.material"
material /global/environment/bare_roots/shadowcaster : Ogre/DepthShadowmap/Caster/Float
{
    set_texture_alias DiffuseMap 3d_objects/environment/textures/bare_roots/D.png
}
material /global/environment/bare_roots : /base/normalmap/specular/nonculled/alpharejected
{
    set_texture_alias DiffuseMap 3d_objects/environment/textures/bare_roots/D.png
    set_texture_alias NormalHeightMap 3d_objects/environment/textures/bare_roots/N.png
    set_texture_alias SpecularMap 3d_objects/environment/textures/bare_roots/S.png
    set $shadow_caster_material /global/environment/bare_roots/shadowcaster
}
