import * from "resources/ogre/scripts/materials/base.material"

material /global/clothes/footwear/metal_shoes : /base/simple/nonculled
{
    set_texture_alias DiffuseMap 3d_skeletons/clothes/footwear/textures/metal_shoes/D.png
}
