import * from "resources/ogre/scripts/materials/base.material"

material /global/insects/carrion : /base/normalmap/specular
{
    set_texture_alias DiffuseMap 3d_skeletons/insects/textures/carrion/D.png
    set_texture_alias NormalHeightMap 3d_skeletons/insects/textures/carrion/N.png
    set_texture_alias SpecularMap 3d_skeletons/insects/textures/carrion/S.png
    set $specular "0.449020 0.449020 0.449020 50.000000"
}
