import * from "resources/ogre/scripts/materials/base.material"

import * from "resources/ogre/scripts/programs/DepthShadowmap.material"
material /global/items/parchments/parchment/shadowcaster : Ogre/DepthShadowmap/Caster/Float
{
    set_texture_alias DiffuseMap 3d_objects/items/parchments/textures/parchment/D.png
}
material /global/items/parchments/parchment : /base/normalmap/specular/nonculled/alpharejected
{
    set_texture_alias DiffuseMap 3d_objects/items/parchments/textures/parchment/D.png
    set_texture_alias NormalHeightMap 3d_objects/items/parchments/textures/parchment/N.png
    set_texture_alias SpecularMap 3d_objects/items/parchments/textures/parchment/S.png
    set $shadow_caster_material /global/items/parchments/parchment/shadowcaster
}
