import * from "resources/ogre/scripts/materials/base.material"

material /global/structures/moraf_timber_beam : /base/normalmap/specular
{
    set_texture_alias DiffuseMap 3d_objects/structures/textures/moraf_timber_beam/D.png
    set_texture_alias NormalHeightMap 3d_objects/structures/textures/moraf_timber_beam/N.png
    set_texture_alias SpecularMap 3d_objects/structures/textures/moraf_timber_beam/S.png
}
