import * from "resources/ogre/scripts/materials/base.material"

import * from "resources/ogre/scripts/programs/DepthShadowmap.material"
material /global/junkyard/sear/structures/respa_column/shadowcaster : Ogre/DepthShadowmap/Caster/Float
{
    set_texture_alias DiffuseMap junkyard/sear/3d_objects/structures/textures/respa_column/D.png
}
material /global/junkyard/sear/structures/respa_column : /base/simple/nonculled/alpharejected
{
    set_texture_alias DiffuseMap junkyard/sear/3d_objects/structures/textures/respa_column/D.png
    set $shadow_caster_material /global/junkyard/sear/structures/respa_column/shadowcaster
}
