import * from "resources/ogre/scripts/materials/base.material"

material /global/insects/emerald : /base/normalmap/specular
{
    set_texture_alias DiffuseMap 3d_skeletons/insects/textures/emerald/D.png
    set_texture_alias NormalHeightMap 3d_skeletons/insects/textures/emerald/N.png
    set_texture_alias SpecularMap 3d_skeletons/insects/textures/emerald/S.png
    set $specular "0.449020 0.449020 0.449020 50.000000"
}
