import * from "resources/ogre/scripts/materials/base.material"

material /global/quadrapeds/rabbit : /base/normalmap/specular
{
    set_texture_alias DiffuseMap 3d_skeletons/quadrapeds/rabbit/D.png
    set_texture_alias NormalHeightMap 3d_skeletons/quadrapeds/rabbit/N.png
    set_texture_alias SpecularMap 3d_skeletons/quadrapeds/rabbit/S.png
}
