import * from "resources/ogre/scripts/materials/base.material"

import * from "resources/ogre/scripts/programs/DepthShadowmap.material"
material /global/creatures/tuna/body/shadowcaster : Ogre/DepthShadowmap/Caster/Float
{
    set_texture_alias DiffuseMap 3d_objects/creatures/tuna/textures/body/D.png
}
material /global/creatures/tuna/body : /base/simple/nonculled/alpharejected
{
    set_texture_alias DiffuseMap 3d_objects/creatures/tuna/textures/body/D.png
    set $shadow_caster_material /global/creatures/tuna/body/shadowcaster
}
