import * from "resources/ogre/scripts/materials/base.material"

material /global/structures/rezpa_cobblestone : /base/normalmap/specular
{
    set_texture_alias DiffuseMap 3d_objects/structures/textures/rezpa_cobblestone/D.png
    set_texture_alias NormalHeightMap 3d_objects/structures/textures/rezpa_cobblestone/N.png
    set_texture_alias SpecularMap 3d_objects/structures/textures/rezpa_cobblestone/S.png
}
