import * from "resources/ogre/scripts/materials/base.material"

import * from "resources/ogre/scripts/programs/DepthShadowmap.material"
material /global/items/weapons/arrow/shadowcaster : Ogre/DepthShadowmap/Caster/Float
{
    set_texture_alias DiffuseMap 3d_objects/items/weapons/textures/arrow/D.png
}
material /global/items/weapons/arrow : /base/normalmap/specular/nonculled/alpharejected
{
    set_texture_alias DiffuseMap 3d_objects/items/weapons/textures/arrow/D.png
    set_texture_alias NormalHeightMap 3d_objects/items/weapons/textures/arrow/N.png
    set_texture_alias SpecularMap 3d_objects/items/weapons/textures/arrow/S.png
    set $shadow_caster_material /global/items/weapons/arrow/shadowcaster
}
