import * from "resources/ogre/scripts/materials/base.material"

import * from "resources/ogre/scripts/programs/DepthShadowmap.material"
material /global/plants/tree_billboard/set1/shadowcaster : Ogre/DepthShadowmap/Caster/Float
{
    set_texture_alias DiffuseMap 3d_objects/plants/tree_billboard/textures/set1/D.png
}
material /global/plants/tree_billboard/set1 : /base/normalmap/nonculled/alpharejected
{
    set_texture_alias DiffuseMap 3d_objects/plants/tree_billboard/textures/set1/D.png
    set_texture_alias NormalHeightMap 3d_objects/plants/tree_billboard/textures/set1/N.png
    set $shadow_caster_material /global/plants/tree_billboard/set1/shadowcaster
}
