import * from "resources/ogre/scripts/materials/base.material"

material /global/bipeds/races/human/paladin/attire/hair : /base/simple
{
    set_texture_alias DiffuseMap 3d_skeletons/bipeds/races/human/paladin/attire/hair/D.png
}
