import * from "resources/ogre/scripts/materials/base.material"

material /global/bipeds/races/skeleton/head/hair3 : /base/simple
{
    set_texture_alias DiffuseMap 3d_skeletons/bipeds/races/skeleton/head/hair3/D.png
}
