import * from "resources/ogre/scripts/materials/base.material"

material /global/structures/ossyja_post : /base/normalmap/specular
{
    set_texture_alias DiffuseMap 3d_objects/structures/textures/ossyja_post/D.png
    set_texture_alias NormalHeightMap 3d_objects/structures/textures/ossyja_post/N.png
    set_texture_alias SpecularMap 3d_objects/structures/textures/ossyja_post/S.png
}
