import * from "resources/ogre/scripts/materials/base.material"

import * from "resources/ogre/scripts/programs/DepthShadowmap.material"
material /global/plants/shrubs/leaf_green/shadowcaster : Ogre/DepthShadowmap/Caster/Float
{
    set_texture_alias DiffuseMap 3d_objects/plants/shrubs/textures/leaf_green/D.png
}
material /global/plants/shrubs/leaf_green : /base/normalmap/specular/nonculled/alpharejected
{
    set_texture_alias DiffuseMap 3d_objects/plants/shrubs/textures/leaf_green/D.png
    set_texture_alias NormalHeightMap 3d_objects/plants/shrubs/textures/leaf_green/N.png
    set_texture_alias SpecularMap 3d_objects/plants/shrubs/textures/leaf_green/S.png
    set $shadow_caster_material /global/plants/shrubs/leaf_green/shadowcaster
    set $alpha_reject "greater_equal 128"
}
