import * from "resources/ogre/scripts/materials/base.material"

import * from "resources/ogre/scripts/programs/DepthShadowmap.material"
material /global/characters/malebuilder/male/dress_ragged/shadowcaster : Ogre/DepthShadowmap/Caster/Float
{
    set_texture_alias DiffuseMap 3d_objects/characters/malebuilder/male/textures/dress_ragged/D.png
}
material /global/characters/malebuilder/male/dress_ragged : /base/simple/nonculled/alpharejected
{
    set_texture_alias DiffuseMap 3d_objects/characters/malebuilder/male/textures/dress_ragged/D.png
    set $shadow_caster_material /global/characters/malebuilder/male/dress_ragged/shadowcaster
}
