import * from "resources/ogre/scripts/materials/base.material"

import * from "resources/ogre/scripts/programs/DepthShadowmap.material"
material /global/items/tools/tools_head_rusty/shadowcaster : Ogre/DepthShadowmap/Caster/Float
{
    set_texture_alias DiffuseMap 3d_objects/items/tools/textures/tools_head_rusty/D.png
}
material /global/items/tools/tools_head_rusty : /base/normalmap/specular/nonculled/alpharejected
{
    set_texture_alias DiffuseMap 3d_objects/items/tools/textures/tools_head_rusty/D.png
    set_texture_alias NormalHeightMap 3d_objects/items/tools/textures/tools_head_rusty/N.png
    set_texture_alias SpecularMap 3d_objects/items/tools/textures/tools_head_rusty/S.png
    set $shadow_caster_material /global/items/tools/tools_head_rusty/shadowcaster
}
