import * from "resources/ogre/scripts/materials/base.material"

material /global/creatures/horse/body : /base/normalmap/specular
{
    set_texture_alias DiffuseMap 3d_objects/creatures/horse/textures/body/D.png
    set_texture_alias NormalHeightMap 3d_objects/creatures/horse/textures/body/N.png
    set_texture_alias SpecularMap 3d_objects/creatures/horse/textures/body/S.png
}
