import * from "resources/ogre/scripts/materials/base.material"

import * from "resources/ogre/scripts/programs/DepthShadowmap.material"
material /global/plants/fruit/carrot/shadowcaster : Ogre/DepthShadowmap/Caster/Float
{
    set_texture_alias DiffuseMap 3d_objects/plants/fruit/textures/carrot/D.png
}
material /global/plants/fruit/carrot : /base/normalmap/specular/nonculled/alpharejected
{
    set_texture_alias DiffuseMap 3d_objects/plants/fruit/textures/carrot/D.png
    set_texture_alias NormalHeightMap 3d_objects/plants/fruit/textures/carrot/N.png
    set_texture_alias SpecularMap 3d_objects/plants/fruit/textures/carrot/S.png
    set $shadow_caster_material /global/plants/fruit/carrot/shadowcaster
}
