import * from "resources/ogre/scripts/materials/base.material"

material /global/structures/blue_floor_tile : /base/normalmap/specular
{
    set_texture_alias DiffuseMap 3d_objects/structures/textures/blue_floor_tile/D.png
    set_texture_alias NormalHeightMap 3d_objects/structures/textures/blue_floor_tile/N.png
    set_texture_alias SpecularMap 3d_objects/structures/textures/blue_floor_tile/S.png
}
