import * from "resources/ogre/scripts/materials/base.material"

material /global/items/resources/charcoal : /base/normalmap
{
    set_texture_alias DiffuseMap 3d_objects/items/resources/textures/charcoal/D.png
    set_texture_alias NormalHeightMap 3d_objects/items/resources/textures/charcoal/N.png
}
