import * from "resources/ogre/scripts/materials/base.material"

import * from "resources/ogre/scripts/programs/DepthShadowmap.material"
material /global/items/parchments/parchment_text/shadowcaster : Ogre/DepthShadowmap/Caster/Float
{
    set_texture_alias DiffuseMap 3d_objects/items/parchments/textures/parchment_text/D.png
}
material /global/items/parchments/parchment_text : /base/simple/nonculled/alpharejected
{
    set_texture_alias DiffuseMap 3d_objects/items/parchments/textures/parchment_text/D.png
    set $shadow_caster_material /global/items/parchments/parchment_text/shadowcaster
}
