import * from "resources/ogre/scripts/materials/base.material"

material /global/structures/ossyja_stairs : /base/normalmap/specular
{
    set_texture_alias DiffuseMap 3d_objects/structures/textures/ossyja_stairs/D.png
    set_texture_alias NormalHeightMap 3d_objects/structures/textures/ossyja_stairs/N.png
    set_texture_alias SpecularMap 3d_objects/structures/textures/ossyja_stairs/S.png
}
